{
    "scripts": [
        "create path (sling:OrderedFolder) /content/dam/paclife-ria-dsys",
        "create path (nt:unstructured) /content/dam/paclife-ria-dsys/jcr:content",
        "set properties on /content/dam/paclife-ria-dsys/jcr:content\n  set cq:conf{String} to /conf/paclife-ria-dsys\n  set jcr:title{String} to \"Paclife RIA\"\nend"
    ]
}
